<svg width="104" height="105" xmlns="http://www.w3.org/2000/svg">

 <g>
  <title>background</title>
  <rect fill="none" id="canvas_background" height="107" width="106" y="-1" x="-1"/>
 </g>
 <g>
  <title>Layer 1</title>
  <path fill="#3ed83e" id="svg_1" d="m50,5c-14.9,0 -26.9,12.1 -26.9,27c0,14.2 22.7,60.2 25.2,62.4c0.5,0.4 1.1,0.6 1.7,0.6c0.6,0 1.2,-0.2 1.7,-0.6c2.6,-2.2 25.2,-48.2 25.2,-62.4c0,-14.9 -12,-27 -26.9,-27zm9.2,44c-0.6,0.3 -1.3,0.5 -2,0.6c-0.7,0.2 -1.4,0.3 -2.1,0.3c-0.8,0.1 -1.5,0.1 -2.1,0.1c-3.3,0 -6.1,-1.4 -8.4,-3.1c-2.3,-1.8 -3.8,-3.9 -4.6,-8.9l-4.2,0l1.4,-3l2.8,0l0,-1.4c0,-0.2 0,-0.5 0,-0.7c0,-0.2 -0.5,-0.9 -0.4,-0.9l-3.7,0l1.4,-4l2.8,0c0.5,-1 1.1,-3.7 2,-5.1c0.9,-1.4 1.9,-2.5 3,-3.3c1.1,-0.9 2.4,-1.5 3.8,-1.9c1.4,-0.4 2.8,-0.6 4.3,-0.6c1.6,0 3,0.1 4.2,0.4c1.2,0.2 2.2,0.5 3.1,0.8l-1.6,4.6c-0.7,-0.3 -1.4,-0.5 -2.3,-0.6c-0.9,-0.1 -1.9,-0.2 -3.1,-0.2c-1.8,0 -3.4,0.5 -4.7,1.4c-1.3,0.9 -2.3,3.5 -2.9,4.5l11.7,0l-1.2,4l-11.3,0c0,0 -0.1,0.6 -0.1,0.8c0,0.2 0,0.5 0,0.7l0,1.5l10.4,0l-1.2,3l-8.5,0c0.6,4 1.6,4 2.9,5c1.3,1 3.1,1.8 5.2,1.8c1.3,0 2.4,0 3.3,-0.3c0.9,-0.3 1.7,-0.6 2.5,-1l1.2,4.5c-0.5,0.4 -1,0.7 -1.6,1z"/>
  <text id="svg_2" font-family="'Helvetica Neue', Helvetica, Arial-Unicode, Arial, Sans-serif" font-weight="bold" font-size="5px" fill="#000000" y="115" x="0">Created by Vladislav  Sergeev</text>
  <text id="svg_3" font-family="'Helvetica Neue', Helvetica, Arial-Unicode, Arial, Sans-serif" font-weight="bold" font-size="5px" fill="#000000" y="120" x="0">from the Noun Project</text>
 </g>
</svg>