<svg width="54" height="54" xmlns="http://www.w3.org/2000/svg">
 <metadata id="metadata44">image/svg+xml</metadata>

 <g>
  <title>background</title>
  <rect fill="none" id="canvas_background" height="56" width="56" y="-1" x="-1"/>
 </g>
 <g>
  <title>Layer 1</title>
  <path fill="#ed1a3a" fill-rule="evenodd" id="rect36" d="m-0.294,-0.317l54.61176,0l0,28.55026l-54.61176,0l0,-28.55026z"/>
  <path fill="#000000" fill-rule="evenodd" id="rect38" d="m-0.294,27.67439l54.61176,0l0,27.9894l-54.61176,0l0,-27.9894z"/>
  <path fill="none" stroke="#ffffff" stroke-width="1.725" stroke-miterlimit="10" id="line40" d="m9.24818,27.67241l35.52933,0"/>
 </g>
</svg>